<?xml version="1.0" encoding="utf-8"?>
<!-- Generator: Adobe Illustrator 23.0.3, SVG Export Plug-In . SVG Version: 6.00 Build 0)  -->
<svg version="1.1" id="Capa_1" xmlns="http://www.w3.org/2000/svg" xmlns:xlink="http://www.w3.org/1999/xlink" x="0px" y="0px"
	 viewBox="0 0 512 512" style="enable-background:new 0 0 512 512;" xml:space="preserve">
<style type="text/css">
	.st0{fill:#FF9900;}
</style>
<path class="st0" d="M263.6,3.1c-4.2-4.2-10.9-4.2-15.1,0L45.8,205.8C24,227.6,24,263,45.8,284.9s57.2,21.8,79.1,0l77.8-77.8v251.6
	c0,29.5,23.9,53.3,53.3,53.3s53.3-23.9,53.3-53.3V207.1l77.8,77.8c21.8,21.8,57.2,21.8,79.1,0s21.8-57.2,0-79.1L263.6,3.1z"/>
</svg>
